…
homicide_test <- map2(homicide_input$n_unsolved, homicide_input$n_homicides, prop.test)

homicide_test <- map(homicide_test, broom::tidy)

homicide_test <- map_dfr(homicide_test, extract, c("estimate", "conf.low", "conf.high"))

homicide_test <- homicide_test %>% 
  mutate(city_state = homicide_summary$city_state, estimate, conf.low, conf.high) %>%
  select(city_state, estimate, conf.low, conf.high)

homicide_test
```

    ## # A tibble: 50 x 4
    ##    city_state      estimate conf.low conf.high
    ##    <chr>              <dbl>    <dbl>     <dbl>
    ##  1 Albuquerque, NM    0.386    0.337     0.438
    ##  2 Atlanta, GA        0.383    0.353     0.415
    ##  3 Baltimore, MD      0.646    0.628     0.663
    ##  4 Baton Rouge, LA    0.462    0.414     0.511
    ##  5 Birmingham, AL     0.434    0.399     0.469
    ##  6 Boston, MA         0.505    0.465     0.545
    ##  7 Buffalo, NY        0.612    0.569     0.654
    ##  8 Charlotte, NC      0.300    0.266     0.336
    ##  9 Chicago, IL        0.736    0.724     0.747
    ## 10 Cincinnati, OH     0.445    0.408     0.483
    ## # … with 40 more rows
…
``` r
con_exp_df <- rbind(con_df, exp_df) %>% select(subject_id, arm, week_1:week_8)

colnames(con_exp_df) = c("subject_id", "arm", "1", "2", "3", "4", "5", "6", "7", "8")

con_exp_df <- con_exp_df %>% gather(key = week, value = observation, 3:10)

con_exp_df
```

    ## # A tibble: 160 x 4
    ##    subject_id arm     week  observation
    ##    <chr>      <chr>   <chr>       <dbl>
    ##  1 con_1      control 1            0.2 
    ##  2 con_2      control 1            1.13
    ##  3 con_3      control 1            1.77
    ##  4 con_4      control 1            1.04
    ##  5 con_5      control 1            0.47
    ##  6 con_6      control 1            2.37
    ##  7 con_7      control 1            0.03
    ##  8 con_8      control 1           -0.08
    ##  9 con_9      control 1            0.08
    ## 10 con_10     control 1            2.14
    ## # … with 150 more rows
…
